Reconstrucción Ancestral de Secuencias - GCCATTGC - PCC_7716
…
Primero cuento el numero de veces que se repite cada linea de la
matriz de transiciones. El conteo para cada transicion sera el peso de
cada vertice. Luego cambio el nombre de la columna
counts a weight, paso su contenido a
numeros enteros y la convierto a tibble. En total tengo 25930
transiciones:

library(data.table)
RowCts <- setDT(DF)[,list(Count=as.numeric(.N)),names(DF)] ## CUENTO EL NUMERO DE OCURRENCIAS DE CADA TRANSICIÓN #7211
colnames(RowCts) <- c("from","to","weight") 
RowCts = transform(RowCts, weight = as.integer(weight)) ## CONVIERTO A ENTEROS LA COLUMNA "weight"
RowCts <-as_tibble(RowCts) ## CONVIERTO A TIBBLE
RowCts #7211

## # A tibble: 209 × 3
##    from     to       weight
##    <chr>    <chr>     <int>
##  1 GCGATCGC GCGATCGC    191
##  2 GCTATATC GCGATCGC      1
##  3 GCCATTGC GCCATTGC    164
##  4 GCCATTGC GCGATCGC     26
##  5 GCCATTGC GCCATCGC      7
##  6 GCCATCGC GCCATCGC     21
##  7 GCCATCGC GCGATCGC      5
##  8 GCGATCGC GCAATTGC      1
##  9 GCATTGAC GCAATTGC      1
## 10 GCAATTAA GCAATTGC      1
## # ℹ 199 more rows
…
Creo un grafo dirigido agregando un peso de acuerdo a la columna
weight.

routes_tidy <- tbl_graph(nodes = nodes,
                         edges = edges,
                         directed = TRUE)

routes_tidy

## # A tbl_graph: 125 nodes and 167 edges
## #
## # A directed simple graph with 1 component
## #
## # A tibble: 125 × 2
##      id label   
##   <int> <chr>   
## 1     1 GCTATATC
## 2     2 GCCATTGC
## 3     3 GCCATCGC
## 4     4 GCGATCGC
## 5     5 GCATTGAC
## 6     6 GCAATTAA
## # ℹ 119 more rows
## #
## # A tibble: 167 × 3
##    from    to weight
##   <int> <int>  <int>
## 1     1     4      1
## 2     2     4     26
## 3     2     3      7
## # ℹ 164 more rows

routes_tidy %>% 
  activate(edges) %>% 
  arrange(desc(weight))

## # A tbl_graph: 125 nodes and 167 edges
## #
## # A directed simple graph with 1 component
## #
## # A tibble: 167 × 3
##    from    to weight
##   <int> <int>  <int>
## 1     2     4     26
## 2     2    16     13
## 3     2     3      7
## 4    16     4      7
## 5     3     4      5
## 6     2     7      5
## # ℹ 161 more rows
## #
## # A tibble: 125 × 2
##      id label   
##   <int> <chr>   
## 1     1 GCTATATC
## 2     2 GCCATTGC
## 3     3 GCCATCGC
## # ℹ 122 more rows
…
## [1] 325

## # A tbl_graph: 57 nodes and 43 edges
## #
## # A directed multigraph with 23 components
## #
## # A tibble: 43 × 4
##    from    to direction weight
##   <int> <int> <chr>      <int>
## 1     1     1 336-3--7      41
## 2     1    41 336-3--7       2
## 3     1    44 336-3--7       2
## 4     1    38 336-3--7       1
## 5     2     2 336-3--7       1
## 6     3     3 336-3--7       1
## # ℹ 37 more rows
## #
## # A tibble: 57 × 2
##      id label   
##   <int> <chr>   
## 1     1 GCGATCGC
## 2     2 GCCATTAC
## 3     3 GCGGTAGC
## # ℹ 54 more rows
…
## [1] 325

## # A tbl_graph: 60 nodes and 45 edges
## #
## # A directed multigraph with 23 components
## #
## # A tibble: 60 × 2
##      id label   
##   <int> <chr>   
## 1     1 GCGATCGC
## 2     2 GCATTGAC
## 3     3 TTCATTAC
## 4     4 GCTGTTGC
## 5     5 GTTATTGT
## 6     6 GCAATTCA
## # ℹ 54 more rows
## #
## # A tibble: 45 × 4
##    from    to direction    weight
##   <int> <int> <chr>         <int>
## 1     1     1 NIES-3974--7     39
## 2     2    36 NIES-3974--7      1
## 3     3    41 NIES-3974--7      1
## # ℹ 42 more rows

## # A tbl_graph: 60 nodes and 45 edges
## #
## # A directed multigraph with 23 components
## #
## # A tibble: 45 × 4
##    from    to direction    weight
##   <int> <int> <chr>         <int>
## 1     1     1 NIES-3974--7     39
## 2     1    27 NIES-3974--7      2
## 3     1    44 NIES-3974--7      2
## 4     2    36 NIES-3974--7      1
## 5     3    41 NIES-3974--7      1
## 6     4    42 NIES-3974--7      1
## # ℹ 39 more rows
## #
## # A tibble: 60 × 2
##      id label   
##   <int> <chr>   
## 1     1 GCGATCGC
## 2     2 GCATTGAC
## 3     3 TTCATTAC
## # ℹ 57 more rows
…
## [1] 325

## # A tbl_graph: 21 nodes and 21 edges
## #
## # A directed multigraph with 21 components
## #
## # A tibble: 21 × 4
##    from    to direction     weight
##   <int> <int> <chr>          <int>
## 1     1     1 NIES-4071--10     33
## 2     4     4 NIES-4071--10      8
## 3     6     6 NIES-4071--10      7
## 4     5     5 NIES-4071--10      6
## 5     2     2 NIES-4071--10      4
## 6    11    11 NIES-4071--10      4
## # ℹ 15 more rows
## #
## # A tibble: 21 × 2
##      id label   
##   <int> <chr>   
## 1     1 GCCATTGC
## 2     2 GCCATCGC
## 3     3 GCTATAGC
## # ℹ 18 more rows
…
## [1] 325

## # A tbl_graph: 21 nodes and 21 edges
## #
## # A directed multigraph with 21 components
## #
## # A tibble: 21 × 4
##    from    to direction     weight
##   <int> <int> <chr>          <int>
## 1     1     1 NIES-4105--10     33
## 2     4     4 NIES-4105--10      8
## 3     6     6 NIES-4105--10      7
## 4     5     5 NIES-4105--10      6
## 5     2     2 NIES-4105--10      4
## 6    11    11 NIES-4105--10      4
## # ℹ 15 more rows
## #
## # A tibble: 21 × 2
##      id label   
##   <int> <chr>   
## 1     1 GCCATTGC
## 2     2 GCCATCGC
## 3     3 GCTATAGC
## # ℹ 18 more rows
…
## [1] 325

## # A tbl_graph: 53 nodes and 49 edges
## #
## # A directed multigraph with 17 components
## #
## # A tibble: 49 × 4
##    from    to direction   weight
##   <int> <int> <chr>        <int>
## 1     2     2 PCC_6303--8     30
## 2     7     7 PCC_6303--8      3
## 3    10    10 PCC_6303--8      2
## 4    12     2 PCC_6303--8      2
## 5     7    39 PCC_6303--8      2
## 6    13    13 PCC_6303--8      2
## # ℹ 43 more rows
## #
## # A tibble: 53 × 2
##      id label   
##   <int> <chr>   
## 1     1 GCTATATC
## 2     2 GCGATCGC
## 3     3 GCAATTAA
## # ℹ 50 more rows
…
## [1] 325

## # A tbl_graph: 16 nodes and 16 edges
## #
## # A directed multigraph with 1 component
## #
## # A tibble: 16 × 4
##    from    to direction   weight
##   <int> <int> <chr>        <int>
## 1     1     1 PCC_7716--9     47
## 2     1     5 PCC_7716--9      8
## 3     1     2 PCC_7716--9      6
## 4     1     6 PCC_7716--9      4
## 5     1     9 PCC_7716--9      4
## 6     1     3 PCC_7716--9      3
## # ℹ 10 more rows
## #
## # A tibble: 16 × 2
##      id label   
##   <int> <chr>   
## 1     1 GCCATTGC
## 2     2 GCCATCGC
## 3     3 GCTATTGC
## # ℹ 13 more rows
…
## [1] 325

## # A tbl_graph: 24 nodes and 28 edges
## #
## # A directed multigraph with 10 components
## #
## # A tibble: 28 × 4
##    from    to direction weight
##   <int> <int> <chr>      <int>
## 1     1     1 10--9         33
## 2     4     4 10--9          7
## 3     6     1 10--9          5
## 4     2     2 10--9          4
## 5     5     1 10--9          4
## 6    11    11 10--9          4
## # ℹ 22 more rows
## #
## # A tibble: 24 × 2
##      id label   
##   <int> <chr>   
## 1     1 GCCATTGC
## 2     2 GCCATCGC
## 3     3 GCTATAGC
## # ℹ 21 more rows
…
## [1] 325

## # A tbl_graph: 34 nodes and 38 edges
## #
## # A directed multigraph with 8 components
## #
## # A tibble: 38 × 4
##    from    to direction weight
##   <int> <int> <chr>      <int>
## 1     1    17 9--8          25
## 2     1     1 9--8           7
## 3     1     5 9--8           5
## 4     2    17 9--8           4
## 5     9    17 9--8           4
## 6     5    17 9--8           4
## # ℹ 32 more rows
## #
## # A tibble: 34 × 2
##      id label   
##   <int> <chr>   
## 1     1 GCCATTGC
## 2     2 GCCATCGC
## 3     3 GCTATTGC
## # ℹ 31 more rows
…
## [1] 325

## # A tbl_graph: 39 nodes and 34 edges
## #
## # A directed multigraph with 22 components
## #
## # A tibble: 39 × 2
##      id label   
##   <int> <chr>   
## 1     1 GCGATCGC
## 2     2 GCAATTGC
## 3     3 GCCATTGC
## 4     4 GCGGTAGC
## 5     5 GCTATTGT
## 6     6 GCAATAGC
## # ℹ 33 more rows
## #
## # A tibble: 34 × 4
##    from    to direction weight
##   <int> <int> <chr>      <int>
## 1     1     1 8--7          38
## 2     2     2 8--7           2
## 3     3    28 8--7           1
## # ℹ 31 more rows

## # A tbl_graph: 39 nodes and 34 edges
## #
## # A directed multigraph with 22 components
## #
## # A tibble: 34 × 4
##    from    to direction weight
##   <int> <int> <chr>      <int>
## 1     1     1 8--7          38
## 2     3     3 8--7           4
## 3     7     7 8--7           4
## 4     7     1 8--7           3
## 5    10    10 8--7           3
## 6    11    11 8--7           3
## # ℹ 28 more rows
## #
## # A tibble: 39 × 2
##      id label   
##   <int> <chr>   
## 1     1 GCGATCGC
## 2     2 GCAATTGC
## 3     3 GCCATTGC
## # ℹ 36 more rows
