Reconstrucción Ancestral de Secuencias - ORTÓLOGOS - GCGATCGC - 336-3
…
Primero cuento el numero de veces que se repite cada linea de la
matriz de transiciones. El conteo para cada transicion sera el peso de
cada vertice. Luego cambio el nombre de la columna
counts a weight, paso su contenido a
numeros enteros y la convierto a tibble. En total tengo 25930
transiciones:

library(data.table)
RowCts <- setDT(DF)[,list(Count=as.numeric(.N)),names(DF)] ## CUENTO EL NUMERO DE OCURRENCIAS DE CADA TRANSICIÓN #7211
colnames(RowCts) <- c("from","to","weight") 
RowCts = transform(RowCts, weight = as.integer(weight)) ## CONVIERTO A ENTEROS LA COLUMNA "weight"
RowCts <-as_tibble(RowCts) ## CONVIERTO A TIBBLE
RowCts #7211

## # A tibble: 7,088 × 3
##    from     to       weight
##    <chr>    <chr>     <int>
##  1 GCGATCGC GCGATCGC   6911
##  2 GCGAACGT GCGAGCGC      1
##  3 GCGGGCGC GCGGGCGC      6
##  4 GCGAGCGC GCGATCGC     10
##  5 GCGGGCGC GCGAGCGC      1
##  6 GCGATCGC ACGATCGC     10
##  7 ACTATCAT ACGATCGC      1
##  8 ACAATGGT ACGATGGC      1
##  9 ACGATGGC ACGATGGC      5
## 10 ACGATCGC ACGATCGC     14
## # ℹ 7,078 more rows
…
Creo un grafo dirigido agregando un peso de acuerdo a la columna
weight.

routes_tidy <- tbl_graph(nodes = nodes,
                         edges = edges,
                         directed = TRUE)

routes_tidy

## # A tbl_graph: 51 nodes and 98 edges
## #
## # A directed simple graph with 1 component
## #
## # A tibble: 51 × 2
##      id label   
##   <int> <chr>   
## 1     1 GCGAGCGC
## 2     2 GCGATCGC
## 3     3 GCGACCGT
## 4     4 GCGACCGC
## 5     5 GTGACCGC
## 6     6 GCGATTGC
## # ℹ 45 more rows
## #
## # A tibble: 98 × 3
##    from    to weight
##   <int> <int>  <int>
## 1     1     2     10
## 2     2    39     10
## 3     3     2     47
## # ℹ 95 more rows

routes_tidy %>% 
  activate(edges) %>% 
  arrange(desc(weight))

## # A tbl_graph: 51 nodes and 98 edges
## #
## # A directed simple graph with 1 component
## #
## # A tibble: 98 × 3
##    from    to weight
##   <int> <int>  <int>
## 1     6     2     96
## 2     7     2     81
## 3    11     2     80
## 4    20     2     70
## 5     8     2     68
## 6    16     2     61
## # ℹ 92 more rows
## #
## # A tibble: 51 × 2
##      id label   
##   <int> <chr>   
## 1     1 GCGAGCGC
## 2     2 GCGATCGC
## 3     3 GCGACCGT
## # ℹ 48 more rows
…
## [1] 11441

## # A tbl_graph: 50 nodes and 49 edges
## #
## # A rooted tree
## #
## # A tibble: 49 × 4
##    from    to direction weight
##   <int> <int> <chr>      <int>
## 1     1    33 336-3--7      42
## 2     1     9 336-3--7      26
## 3     1     7 336-3--7      22
## 4     1    11 336-3--7      15
## 5     1    26 336-3--7      15
## 6     1    32 336-3--7      15
## # ℹ 43 more rows
## #
## # A tibble: 50 × 2
##      id label   
##   <int> <chr>   
## 1     1 GCGATCGC
## 2     2 ACGATCGC
## 3     3 GCGATCGT
## # ℹ 47 more rows
…
## # A tbl_graph: 6 nodes and 5 edges
## #
## # A rooted tree
## #
## # A tibble: 6 × 2
##      id label   
##   <int> <chr>   
## 1     1 --------
## 2     2 GTGATCGC
## 3     3 GCAATCGC
## 4     4 GCTTTAGC
## 5     5 GTGATTGC
## 6     6 GCGATCGC
## #
## # A tibble: 5 × 4
##    from    to direction    weight
##   <int> <int> <chr>         <int>
## 1     1     6 NIES-3974--7     15
## 2     2     6 NIES-3974--7     12
## 3     3     6 NIES-3974--7      4
## # ℹ 2 more rows

## # A tbl_graph: 6 nodes and 5 edges
## #
## # A rooted tree
## #
## # A tibble: 5 × 4
##    from    to direction    weight
##   <int> <int> <chr>         <int>
## 1     1     6 NIES-3974--7     15
## 2     2     6 NIES-3974--7     12
## 3     3     6 NIES-3974--7      4
## 4     4     6 NIES-3974--7      4
## 5     5     6 NIES-3974--7      4
## #
## # A tibble: 6 × 2
##      id label   
##   <int> <chr>   
## 1     1 --------
## 2     2 GTGATCGC
## 3     3 GCAATCGC
## # ℹ 3 more rows
…
## [1] 11441

## # A tbl_graph: 15 nodes and 17 edges
## #
## # A directed simple graph with 1 component
## #
## # A tibble: 17 × 4
##    from    to direction   weight
##   <int> <int> <chr>        <int>
## 1     1     2 PCC_6303--8     16
## 2     6     2 PCC_6303--8     13
## 3     4    14 PCC_6303--8      9
## 4     3     2 PCC_6303--8      7
## 5     5    14 PCC_6303--8      7
## 6     2    14 PCC_6303--8      7
## # ℹ 11 more rows
## #
## # A tibble: 15 × 2
##      id label   
##   <int> <chr>   
## 1     1 --------
## 2     2 GCGATCGC
## 3     3 GCGATCGT
## # ℹ 12 more rows
…
## [1] 11441

## # A tbl_graph: 18 nodes and 22 edges
## #
## # A directed simple graph with 4 components
## #
## # A tibble: 22 × 4
##    from    to direction   weight
##   <int> <int> <chr>        <int>
## 1     2    15 PCC_7716--9     17
## 2    11    12 PCC_7716--9     17
## 3     1    14 PCC_7716--9     13
## 4     8    14 PCC_7716--9     10
## 5     3    18 PCC_7716--9      8
## 6     6    17 PCC_7716--9      7
## # ℹ 16 more rows
## #
## # A tibble: 18 × 2
##      id label   
##   <int> <chr>   
## 1     1 GCGACCGT
## 2     2 --------
## 3     3 GCAATTGC
## # ℹ 15 more rows
…
## [1] 11441

## # A tbl_graph: 14 nodes and 17 edges
## #
## # A directed simple graph with 2 components
## #
## # A tibble: 17 × 4
##    from    to direction weight
##   <int> <int> <chr>      <int>
## 1     1     9 10--9         13
## 2     1     2 10--9         11
## 3     2     9 10--9          9
## 4     5     7 10--9          8
## 5     1    14 10--9          7
## 6     2     8 10--9          7
## # ℹ 11 more rows
## #
## # A tibble: 14 × 2
##      id label   
##   <int> <chr>   
## 1     1 GCAATTGC
## 2     2 GCTATTGC
## 3     3 GCAATAGC
## # ℹ 11 more rows
…
## [1] 11441

## # A tbl_graph: 51 nodes and 56 edges
## #
## # A directed acyclic simple graph with 1 component
## #
## # A tibble: 56 × 4
##    from    to direction weight
##   <int> <int> <chr>      <int>
## 1    13    51 9--8          61
## 2    15    51 9--8          59
## 3    17    51 9--8          55
## 4     3    51 9--8          52
## 5     4    51 9--8          50
## 6     2    51 9--8          47
## # ℹ 50 more rows
## #
## # A tibble: 51 × 2
##      id label   
##   <int> <chr>   
## 1     1 GCGAGCGC
## 2     2 GCGACCGT
## 3     3 GCGACCGC
## # ℹ 48 more rows
…
## [1] 11441

## # A tbl_graph: 15 nodes and 14 edges
## #
## # A rooted tree
## #
## # A tibble: 15 × 2
##      id label   
##   <int> <chr>   
## 1     1 GCTATTGC
## 2     2 GCAATTGC
## 3     3 GCGGTCGC
## 4     4 GCAATCGC
## 5     5 GCGATTGC
## 6     6 GCTATCGC
## # ℹ 9 more rows
## #
## # A tibble: 14 × 4
##    from    to direction weight
##   <int> <int> <chr>      <int>
## 1     1    15 8--7           5
## 2     2    15 8--7          12
## 3     3    15 8--7           6
## # ℹ 11 more rows

## # A tbl_graph: 15 nodes and 14 edges
## #
## # A rooted tree
## #
## # A tibble: 14 × 4
##    from    to direction weight
##   <int> <int> <chr>      <int>
## 1     5    15 8--7          39
## 2     4    15 8--7          23
## 3    14    15 8--7          13
## 4     2    15 8--7          12
## 5     6    15 8--7          10
## 6     7    15 8--7           8
## # ℹ 8 more rows
## #
## # A tibble: 15 × 2
##      id label   
##   <int> <chr>   
## 1     1 GCTATTGC
## 2     2 GCAATTGC
## 3     3 GCGGTCGC
## # ℹ 12 more rows
